{
	"credit": "Made with Blockbench",
	"texture_size": [64, 64],
	"textures": {
		"0": "create_new_age:block/basic_motor",
		"1": "create:block/axis",
		"2": "create:block/axis_top",
		"particle": "create_new_age:block/basic_motor"
	},
	"elements": [
		{
			"name": "Axis",
			"from": [6, 6, 0],
			"to": [10, 10, 16],
			"rotation": {"angle": 0, "axis": "x", "origin": [8, 8, 8]},
			"faces": {
				"north": {"uv": [6, 6, 10, 10], "rotation": 180, "texture": "#2"},
				"east": {"uv": [6, 0, 10, 16], "rotation": 90, "texture": "#1"},
				"south": {"uv": [6, 6, 10, 10], "texture": "#2"},
				"west": {"uv": [6, 0, 10, 16], "rotation": 270, "texture": "#1"},
				"up": {"uv": [6, 0, 10, 16], "texture": "#1"},
				"down": {"uv": [6, 0, 10, 16], "rotation": 180, "texture": "#1"}
			}
		},
		{
			"from": [12, 2, 0],
			"to": [14, 4, 16],
			"faces": {
				"north": {"uv": [4, 5.5, 4.5, 6], "texture": "#0"},
				"east": {"uv": [6.75, 5.25, 10.75, 5.75], "texture": "#0"},
				"south": {"uv": [5.5, 7.75, 6, 8.25], "texture": "#0"},
				"west": {"uv": [6.75, 5.75, 10.75, 6.25], "texture": "#0"},
				"up": {"uv": [2.25, 10.25, 1.75, 6.25], "texture": "#0"},
				"down": {"uv": [7.5, 6.25, 7, 10.25], "texture": "#0"}
			}
		},
		{
			"from": [12, 12, 0],
			"to": [14, 14, 16],
			"faces": {
				"north": {"uv": [4, 5.5, 4.5, 6], "texture": "#0"},
				"east": {"uv": [6.75, 5.25, 10.75, 5.75], "texture": "#0"},
				"south": {"uv": [5.5, 7.75, 6, 8.25], "texture": "#0"},
				"west": {"uv": [6.75, 5.75, 10.75, 6.25], "texture": "#0"},
				"up": {"uv": [2.25, 10.25, 1.75, 6.25], "texture": "#0"},
				"down": {"uv": [7.5, 6.25, 7, 10.25], "texture": "#0"}
			}
		},
		{
			"from": [2, 12, 0],
			"to": [4, 14, 16],
			"faces": {
				"north": {"uv": [4, 5.5, 4.5, 6], "texture": "#0"},
				"east": {"uv": [6.75, 5.25, 10.75, 5.75], "texture": "#0"},
				"south": {"uv": [5.5, 7.75, 6, 8.25], "texture": "#0"},
				"west": {"uv": [6.75, 5.75, 10.75, 6.25], "texture": "#0"},
				"up": {"uv": [2.25, 10.25, 1.75, 6.25], "texture": "#0"},
				"down": {"uv": [7.5, 6.25, 7, 10.25], "texture": "#0"}
			}
		},
		{
			"from": [2, 2, 0],
			"to": [4, 4, 16],
			"faces": {
				"north": {"uv": [4, 5.5, 4.5, 6], "texture": "#0"},
				"east": {"uv": [6.75, 5.25, 10.75, 5.75], "texture": "#0"},
				"south": {"uv": [5.5, 7.75, 6, 8.25], "texture": "#0"},
				"west": {"uv": [6.75, 5.75, 10.75, 6.25], "texture": "#0"},
				"up": {"uv": [2.25, 10.25, 1.75, 6.25], "texture": "#0"},
				"down": {"uv": [7.5, 6.25, 7, 10.25], "texture": "#0"}
			}
		},
		{
			"from": [3.5, 3.5, 1],
			"to": [12.5, 12.5, 3],
			"faces": {
				"north": {"uv": [0, 4, 2.25, 6.25], "texture": "#0"},
				"east": {"uv": [7, 0, 7.5, 2.25], "texture": "#0"},
				"south": {"uv": [4.75, 0, 7, 2.25], "texture": "#0"},
				"west": {"uv": [2.25, 7.25, 2.75, 9.5], "texture": "#0"},
				"up": {"uv": [9.75, 0.5, 7.5, 0], "texture": "#0"},
				"down": {"uv": [9.75, 0.5, 7.5, 1], "texture": "#0"}
			}
		},
		{
			"from": [5, 5, 3],
			"to": [11, 11, 4],
			"faces": {
				"north": {"uv": [6.75, 2.25, 8.25, 3.75], "texture": "#0"},
				"east": {"uv": [5, 7.75, 5.25, 9.25], "texture": "#0"},
				"south": {"uv": [6.75, 3.75, 8.25, 5.25], "texture": "#0"},
				"west": {"uv": [5.25, 7.75, 5.5, 9.25], "texture": "#0"},
				"up": {"uv": [9, 1.75, 7.5, 1.5], "texture": "#0"},
				"down": {"uv": [9, 1.75, 7.5, 2], "texture": "#0"}
			}
		},
		{
			"from": [4.5, 4.5, 4],
			"to": [11.5, 11.5, 5],
			"faces": {
				"north": {"uv": [2.25, 5.5, 4, 7.25], "texture": "#0"},
				"east": {"uv": [4, 7.75, 4.25, 9.5], "texture": "#0"},
				"south": {"uv": [0, 6.25, 1.75, 8], "texture": "#0"},
				"west": {"uv": [4.25, 7.75, 4.5, 9.5], "texture": "#0"},
				"up": {"uv": [9.25, 1.25, 7.5, 1], "texture": "#0"},
				"down": {"uv": [9.25, 1.25, 7.5, 1.5], "texture": "#0"}
			}
		},
		{
			"from": [4, 4, 5],
			"to": [12, 12, 16],
			"faces": {
				"north": {"uv": [4.75, 2.25, 6.75, 4.25], "texture": "#0"},
				"east": {"uv": [0, 0, 2.75, 2], "texture": "#0"},
				"south": {"uv": [4.75, 4.25, 6.75, 6.25], "texture": "#0"},
				"west": {"uv": [0, 2, 2.75, 4], "texture": "#0"},
				"up": {"uv": [4.75, 2.75, 2.75, 0], "texture": "#0"},
				"down": {"uv": [4.75, 2.75, 2.75, 5.5], "texture": "#0"}
			}
		},
		{
			"from": [12, 4, 14],
			"to": [12.5, 12, 16],
			"rotation": {"angle": 0, "axis": "y", "origin": [8, 8, 0]},
			"faces": {
				"north": {"uv": [3.75, 7.25, 4, 9.25], "texture": "#0"},
				"east": {"uv": [2.75, 7.25, 3.25, 9.25], "texture": "#0"},
				"south": {"uv": [7.5, 6.25, 7.75, 8.25], "texture": "#0"},
				"west": {"uv": [3.25, 7.25, 3.75, 9.25], "texture": "#0"},
				"up": {"uv": [4.75, 6, 4.5, 5.5], "texture": "#0"},
				"down": {"uv": [6.25, 7.75, 6, 8.25], "texture": "#0"}
			}
		},
		{
			"from": [4, 12, 14],
			"to": [12, 12.5, 16],
			"rotation": {"angle": 0, "axis": "z", "origin": [8, 8, 0]},
			"faces": {
				"north": {"uv": [3.75, 7.25, 4, 9.25], "rotation": 90, "texture": "#0"},
				"east": {"uv": [6.25, 7.75, 6, 8.25], "rotation": 270, "texture": "#0"},
				"south": {"uv": [7.5, 6.25, 7.75, 8.25], "rotation": 270, "texture": "#0"},
				"west": {"uv": [4.75, 6, 4.5, 5.5], "rotation": 270, "texture": "#0"},
				"up": {"uv": [2.75, 7.25, 3.25, 9.25], "rotation": 270, "texture": "#0"},
				"down": {"uv": [3.25, 7.25, 3.75, 9.25], "rotation": 270, "texture": "#0"}
			}
		},
		{
			"from": [3.5, 4, 14],
			"to": [4, 12, 16],
			"rotation": {"angle": 0, "axis": "z", "origin": [8, 8, 0]},
			"faces": {
				"north": {"uv": [3.75, 7.25, 4, 9.25], "rotation": 180, "texture": "#0"},
				"east": {"uv": [3.25, 7.25, 3.75, 9.25], "rotation": 180, "texture": "#0"},
				"south": {"uv": [7.5, 6.25, 7.75, 8.25], "rotation": 180, "texture": "#0"},
				"west": {"uv": [2.75, 7.25, 3.25, 9.25], "rotation": 180, "texture": "#0"},
				"up": {"uv": [6.25, 7.75, 6, 8.25], "rotation": 180, "texture": "#0"},
				"down": {"uv": [4.75, 6, 4.5, 5.5], "rotation": 180, "texture": "#0"}
			}
		},
		{
			"from": [4, 3.5, 14],
			"to": [12, 4, 16],
			"rotation": {"angle": 0, "axis": "z", "origin": [8, 8, 0]},
			"faces": {
				"north": {"uv": [3.75, 7.25, 4, 9.25], "rotation": 270, "texture": "#0"},
				"east": {"uv": [4.75, 6, 4.5, 5.5], "rotation": 90, "texture": "#0"},
				"south": {"uv": [7.5, 6.25, 7.75, 8.25], "rotation": 90, "texture": "#0"},
				"west": {"uv": [6.25, 7.75, 6, 8.25], "rotation": 90, "texture": "#0"},
				"up": {"uv": [3.25, 7.25, 3.75, 9.25], "rotation": 90, "texture": "#0"},
				"down": {"uv": [2.75, 7.25, 3.25, 9.25], "rotation": 90, "texture": "#0"}
			}
		},
		{
			"from": [12, 5, 5],
			"to": [12.5, 11, 11],
			"rotation": {"angle": 0, "axis": "y", "origin": [8, 8, 0]},
			"faces": {
				"north": {"uv": [2.25, 4, 2.5, 5.5], "texture": "#0"},
				"east": {"uv": [4, 6.25, 5.5, 7.75], "texture": "#0"},
				"south": {"uv": [2.5, 4, 2.75, 5.5], "texture": "#0"},
				"west": {"uv": [5.5, 6.25, 7, 7.75], "texture": "#0"},
				"up": {"uv": [4.75, 9.25, 4.5, 7.75], "texture": "#0"},
				"down": {"uv": [5, 7.75, 4.75, 9.25], "texture": "#0"}
			}
		},
		{
			"from": [3.5, 5, 5],
			"to": [4, 11, 11],
			"rotation": {"angle": 0, "axis": "z", "origin": [8, 8, 0]},
			"faces": {
				"north": {"uv": [2.25, 4, 2.5, 5.5], "rotation": 180, "texture": "#0"},
				"east": {"uv": [5.5, 6.25, 7, 7.75], "rotation": 180, "texture": "#0"},
				"south": {"uv": [2.5, 4, 2.75, 5.5], "rotation": 180, "texture": "#0"},
				"west": {"uv": [4, 6.25, 5.5, 7.75], "rotation": 180, "texture": "#0"},
				"up": {"uv": [5, 7.75, 4.75, 9.25], "rotation": 180, "texture": "#0"},
				"down": {"uv": [4.75, 9.25, 4.5, 7.75], "rotation": 180, "texture": "#0"}
			}
		},
		{
			"from": [5, 3.5, 5],
			"to": [11, 4, 11],
			"rotation": {"angle": 0, "axis": "z", "origin": [8, 8, 0]},
			"faces": {
				"north": {"uv": [2.25, 4, 2.5, 5.5], "rotation": 270, "texture": "#0"},
				"east": {"uv": [4.75, 9.25, 4.5, 7.75], "rotation": 90, "texture": "#0"},
				"south": {"uv": [2.5, 4, 2.75, 5.5], "rotation": 90, "texture": "#0"},
				"west": {"uv": [5, 7.75, 4.75, 9.25], "rotation": 90, "texture": "#0"},
				"up": {"uv": [5.5, 6.25, 7, 7.75], "rotation": 90, "texture": "#0"},
				"down": {"uv": [4, 6.25, 5.5, 7.75], "rotation": 90, "texture": "#0"}
			}
		},
		{
			"from": [5, 12, 5],
			"to": [11, 12.5, 11],
			"rotation": {"angle": 0, "axis": "z", "origin": [8, 8, 0]},
			"faces": {
				"north": {"uv": [2.25, 4, 2.5, 5.5], "rotation": 90, "texture": "#0"},
				"east": {"uv": [5, 7.75, 4.75, 9.25], "rotation": 270, "texture": "#0"},
				"south": {"uv": [2.5, 4, 2.75, 5.5], "rotation": 270, "texture": "#0"},
				"west": {"uv": [4.75, 9.25, 4.5, 7.75], "rotation": 270, "texture": "#0"},
				"up": {"uv": [4, 6.25, 5.5, 7.75], "rotation": 270, "texture": "#0"},
				"down": {"uv": [5.5, 6.25, 7, 7.75], "rotation": 270, "texture": "#0"}
			}
		}
	],
	"display": {
		"thirdperson_righthand": {
			"rotation": [75, 45, 0],
			"translation": [0, 2.5, 0],
			"scale": [0.375, 0.375, 0.375]
		},
		"thirdperson_lefthand": {
			"rotation": [75, 45, 0],
			"translation": [0, 2.5, 0],
			"scale": [0.375, 0.375, 0.375]
		},
		"firstperson_righthand": {
			"rotation": [0, 45, 0],
			"scale": [0.4, 0.4, 0.4]
		},
		"firstperson_lefthand": {
			"rotation": [0, 225, 0],
			"scale": [0.4, 0.4, 0.4]
		},
		"ground": {
			"translation": [0, 3, 0],
			"scale": [0.25, 0.25, 0.25]
		},
		"gui": {
			"rotation": [30, 225, 0],
			"scale": [0.625, 0.625, 0.625]
		},
		"fixed": {
			"scale": [0.5, 0.5, 0.5]
		}
	}
}