{
	"credit": "Made with Blockbench",
	"texture_size": [64, 64],
	"textures": {
		"0": "create_new_age:block/heat_pump",
		"1": "create_new_age:block/heat_pipe",
		"particle": "create_new_age:block/heat_pump"
	},
	"elements": [
		{
			"from": [3.9, 3.9, 0.15],
			"to": [12.1, 12.1, 12.25],
			"rotation": {"angle": 0, "axis": "y", "origin": [0, 0, 0.25]},
			"faces": {
				"north": {"uv": [0, 12, 4, 16], "texture": "#1"},
				"east": {"uv": [1, 4, 4, 6], "texture": "#0"},
				"south": {"uv": [9, 4, 11, 6], "texture": "#0"},
				"west": {"uv": [6, 4, 9, 6], "texture": "#0"},
				"up": {"uv": [6, 4, 4, 1], "texture": "#0"},
				"down": {"uv": [8, 1, 6, 4], "texture": "#0"}
			}
		},
		{
			"from": [3, 5, 0.5],
			"to": [13, 11, 11.5],
			"rotation": {"angle": 0, "axis": "y", "origin": [0, 0, -3.5]},
			"faces": {
				"north": {"uv": [2.75, 9, 5.25, 10.5], "texture": "#0"},
				"east": {"uv": [0, 9, 2.75, 10.5], "texture": "#0"},
				"south": {"uv": [8, 9, 10.5, 10.5], "texture": "#0"},
				"west": {"uv": [5.25, 9, 8, 10.5], "texture": "#0"},
				"up": {"uv": [5.25, 9, 2.75, 6.25], "texture": "#0"},
				"down": {"uv": [7.75, 6.25, 5.25, 9], "texture": "#0"}
			}
		},
		{
			"from": [5, 9, 7],
			"to": [11, 13, 16],
			"rotation": {"angle": -22.5, "axis": "x", "origin": [8, 8.5, 9.5]},
			"faces": {
				"north": {"uv": [10.75, 10.75, 12.25, 11.75], "texture": "#0"},
				"east": {"uv": [8.5, 10.75, 10.75, 11.75], "texture": "#0"},
				"south": {"uv": [14.5, 10.75, 16, 11.75], "texture": "#0"},
				"west": {"uv": [12.25, 10.75, 14.5, 11.75], "texture": "#0"},
				"up": {"uv": [12.25, 10.75, 10.75, 8.5], "texture": "#0"},
				"down": {"uv": [13.75, 8.5, 12.25, 10.75], "texture": "#0"}
			}
		},
		{
			"from": [4, 4, 12],
			"to": [12, 12, 16],
			"rotation": {"angle": 0, "axis": "y", "origin": [8, 0, 8]},
			"faces": {
				"north": {"uv": [0, 12, 4, 16], "texture": "#1"},
				"east": {"uv": [10, 12, 12, 16], "texture": "#1"},
				"south": {"uv": [6, 12, 10, 16], "texture": "#1"},
				"west": {"uv": [4, 12, 6, 16], "texture": "#1"},
				"up": {"uv": [6, 12, 4, 8], "rotation": 270, "texture": "#1"},
				"down": {"uv": [8, 8, 6, 12], "rotation": 90, "texture": "#1"}
			}
		}
	],
	"display": {
		"thirdperson_righthand": {
			"rotation": [75, 45, 0],
			"translation": [0, 2.5, 0],
			"scale": [0.375, 0.375, 0.375]
		},
		"thirdperson_lefthand": {
			"rotation": [75, 45, 0],
			"translation": [0, 2.5, 0],
			"scale": [0.375, 0.375, 0.375]
		},
		"firstperson_righthand": {
			"rotation": [0, 45, 0],
			"scale": [0.4, 0.4, 0.4]
		},
		"firstperson_lefthand": {
			"rotation": [0, 225, 0],
			"scale": [0.4, 0.4, 0.4]
		},
		"ground": {
			"translation": [0, 3, 0],
			"scale": [0.25, 0.25, 0.25]
		},
		"gui": {
			"rotation": [30, 225, 0],
			"scale": [0.625, 0.625, 0.625]
		},
		"head": {
			"rotation": [110.75, 0, 0],
			"translation": [0, 5.75, 2.25]
		},
		"fixed": {
			"scale": [0.5, 0.5, 0.5]
		}
	}
}